<svg width="25" height="25" viewBox="0 0 25 25" fill="none" xmlns="http://www.w3.org/2000/svg">
<path d="M19.4401 5.91994L14.2701 2.92994C13.2801 2.35994 11.7301 2.35994 10.7401 2.92994L5.52008 5.93994C3.45008 7.33994 3.33008 7.54994 3.33008 9.77994V15.2099C3.33008 17.4399 3.45008 17.6599 5.56008 19.0799L10.7301 22.0699C11.2301 22.3599 11.8701 22.4999 12.5001 22.4999C13.1301 22.4999 13.7701 22.3599 14.2601 22.0699L19.4801 19.0599C21.5501 17.6599 21.6701 17.4499 21.6701 15.2199V9.77994C21.6701 7.54994 21.5501 7.33994 19.4401 5.91994ZM12.5001 15.7499C10.7101 15.7499 9.25008 14.2899 9.25008 12.4999C9.25008 10.7099 10.7101 9.24994 12.5001 9.24994C14.2901 9.24994 15.7501 10.7099 15.7501 12.4999C15.7501 14.2899 14.2901 15.7499 12.5001 15.7499Z" fill="#5EF2E0"/>
</svg>
