<svg width="24" height="25" viewBox="0 0 24 25" fill="none" xmlns="http://www.w3.org/2000/svg">
<path d="M15 23.25H9C3.57 23.25 1.25 20.93 1.25 15.5V9.5C1.25 4.07 3.57 1.75 9 1.75H11C11.41 1.75 11.75 2.09 11.75 2.5C11.75 2.91 11.41 3.25 11 3.25H9C4.39 3.25 2.75 4.89 2.75 9.5V15.5C2.75 20.11 4.39 21.75 9 21.75H15C19.61 21.75 21.25 20.11 21.25 15.5V13.5C21.25 13.09 21.59 12.75 22 12.75C22.41 12.75 22.75 13.09 22.75 13.5V15.5C22.75 20.93 20.43 23.25 15 23.25Z" fill="#131317"/>
<path d="M8.50008 18.1901C7.89008 18.1901 7.33008 17.9701 6.92008 17.5701C6.43008 17.0801 6.22008 16.3701 6.33008 15.6201L6.76008 12.6101C6.84008 12.0301 7.22008 11.2801 7.63008 10.8701L15.5101 2.99006C17.5001 1.00006 19.5201 1.00006 21.5101 2.99006C22.6001 4.08006 23.0901 5.19006 22.9901 6.30006C22.9001 7.20006 22.4201 8.08006 21.5101 8.98006L13.6301 16.8601C13.2201 17.2701 12.4701 17.6501 11.8901 17.7301L8.88008 18.1601C8.75008 18.1901 8.62008 18.1901 8.50008 18.1901ZM16.5701 4.05006L8.69008 11.9301C8.50008 12.1201 8.28008 12.5601 8.24008 12.8201L7.81008 15.8301C7.77008 16.1201 7.83008 16.3601 7.98008 16.5101C8.13008 16.6601 8.37008 16.7201 8.66008 16.6801L11.6701 16.2501C11.9301 16.2101 12.3801 15.9901 12.5601 15.8001L20.4401 7.92006C21.0901 7.27006 21.4301 6.69006 21.4801 6.15006C21.5401 5.50006 21.2001 4.81006 20.4401 4.04006C18.8401 2.44006 17.7401 2.89006 16.5701 4.05006Z" fill="#131317"/>
<path d="M19.8501 10.3298C19.7801 10.3298 19.7101 10.3198 19.6501 10.2998C17.0201 9.55978 14.9301 7.46978 14.1901 4.83978C14.0801 4.43978 14.3101 4.02978 14.7101 3.90978C15.1101 3.79978 15.5201 4.02978 15.6301 4.42978C16.2301 6.55978 17.9201 8.24978 20.0501 8.84978C20.4501 8.95978 20.6801 9.37978 20.5701 9.77978C20.4801 10.1198 20.1801 10.3298 19.8501 10.3298Z" fill="#131317"/>
</svg>
