<svg width="24" height="24" viewBox="0 0 24 24" fill="none" xmlns="http://www.w3.org/2000/svg">
<path d="M18.6795 8.01002L12.24 2.77002C10.9815 1.75002 9.01527 1.74002 7.76668 2.76002L1.32712 8.01002C0.402974 8.76002 -0.157415 10.26 0.0392123 11.44L1.27797 18.98C1.56308 20.67 3.1066 22 4.78777 22H15.209C16.8705 22 18.4436 20.64 18.7287 18.97L19.9674 11.43C20.1444 10.26 19.584 8.76002 18.6795 8.01002ZM10.7358 18C10.7358 18.41 10.4015 18.75 9.99841 18.75C9.59532 18.75 9.26105 18.41 9.26105 18V15C9.26105 14.59 9.59532 14.25 9.99841 14.25C10.4015 14.25 10.7358 14.59 10.7358 15V18Z" fill="#25F4EE"/>
<path d="M22.6795 8.01002L16.24 2.77002C14.9815 1.75002 13.0153 1.74002 11.7667 2.76002L5.32712 8.01002C4.40297 8.76002 3.84258 10.26 4.03921 11.44L5.27797 18.98C5.56308 20.67 7.1066 22 8.78777 22H19.209C20.8705 22 22.4436 20.64 22.7287 18.97L23.9674 11.43C24.1444 10.26 23.584 8.76002 22.6795 8.01002ZM14.7358 18C14.7358 18.41 14.4015 18.75 13.9984 18.75C13.5953 18.75 13.2611 18.41 13.2611 18V15C13.2611 14.59 13.5953 14.25 13.9984 14.25C14.4015 14.25 14.7358 14.59 14.7358 15V18Z" fill="#FE2C55"/>
<path d="M20.6795 8.01001L14.24 2.77002C12.9815 1.75002 11.0153 1.74002 9.76668 2.76002L3.32712 8.01001C2.40297 8.76001 1.84258 10.26 2.03921 11.44L3.27797 18.98C3.56308 20.67 5.1066 22 6.78777 22H17.209C18.8705 22 20.4436 20.64 20.7287 18.97L21.9674 11.43C22.1444 10.26 21.584 8.76001 20.6795 8.01001ZM12.7358 18C12.7358 18.41 12.4015 18.75 11.9984 18.75C11.5953 18.75 11.2611 18.41 11.2611 18V15C11.2611 14.59 11.5953 14.25 11.9984 14.25C12.4015 14.25 12.7358 14.59 12.7358 15V18Z" fill="white"/>
<rect x="11" y="14" width="2" height="5" rx="1" fill="#1A1A1A"/>
</svg>
