<svg width="320" height="283" viewBox="0 0 320 283" fill="none" xmlns="http://www.w3.org/2000/svg">
<path opacity="0.5" d="M320 281.581H320.5V281.081V100.117C320.5 95.772 316.973 92.2451 312.628 92.2445H197.112C195.287 92.2445 193.541 91.5242 192.25 90.234L171.634 69.6178C170.156 68.1394 168.155 67.3145 166.072 67.3145H76.665C72.3132 67.3145 68.7925 70.8352 68.7925 75.187V273.709C68.7925 278.054 72.3129 281.581 76.665 281.581H320Z" fill="#62666A" stroke="#62666A"/>
<path opacity="0.14" d="M202.541 128.688C212.466 128.688 220.513 120.642 220.513 110.716C220.513 100.79 212.466 92.7441 202.541 92.7441C192.615 92.7441 184.569 100.79 184.569 110.716C184.569 120.642 192.615 128.688 202.541 128.688Z" fill="#5B5555"/>
<path opacity="0.4" d="M136.57 153.139C139.815 156.378 137.523 161.928 132.933 161.928H76.1826C73.8582 161.928 71.5595 161.812 69.2932 161.593V75.187C69.2932 71.1113 72.5901 67.8145 76.6657 67.8145H140.736C143.724 75.547 145.366 83.9563 145.366 92.7451C145.366 111.849 137.62 129.143 125.103 141.666L136.57 153.139Z" fill="#5B5555"/>
<path opacity="0.3" d="M320 100.117V281.081H295.52V100.117C295.52 96.0473 292.223 92.7441 288.147 92.7441H312.627C316.697 92.7448 320 96.0479 320 100.117Z" fill="#62666A"/>
<path opacity="0.5" d="M320 281.584H321.051L320.388 280.769L245.2 188.321C243.706 186.483 241.462 185.416 239.093 185.416H7.3851C0.755215 185.416 -2.90476 193.11 1.27845 198.254L1.27845 198.254L66.6891 278.679C68.184 280.517 70.4264 281.584 72.7957 281.584H320Z" fill="#62666A" stroke="#62666A"/>
<path opacity="0.3" d="M320 281.081H288.296L213.113 188.636C211.709 186.916 209.61 185.912 207.395 185.912H239.093C241.314 185.912 243.413 186.916 244.81 188.636L320 281.081Z" fill="#62666A"/>
<path d="M264.016 259.399H198.975C196.964 259.399 195.069 258.46 193.851 256.86L177.182 234.958C175.569 232.838 177.081 229.789 179.744 229.789H244.786C246.796 229.789 248.691 230.728 249.91 232.328L266.578 254.23C268.191 256.349 266.68 259.399 264.016 259.399Z" fill="#F8F3F1"/>
<path d="M264.016 259.398H243.091C245.756 259.398 247.269 256.352 245.653 254.228L228.984 232.33C227.767 230.727 225.874 229.787 223.865 229.787H244.784C246.799 229.787 248.693 230.727 249.909 232.33L266.579 254.228C268.188 256.353 266.682 259.398 264.016 259.398Z" fill="#EFE2DD"/>
<path d="M160 264.226H130.455C127.788 264.226 125.626 262.064 125.626 259.397C125.626 256.73 127.788 254.568 130.455 254.568H160C162.667 254.568 164.829 256.73 164.829 259.397C164.829 262.064 162.667 264.226 160 264.226Z" fill="#F8F3F1"/>
<path d="M149.218 248.21H136.678C134.011 248.21 131.849 246.048 131.849 243.381C131.849 240.715 134.011 238.553 136.678 238.553H149.218C151.885 238.553 154.047 240.715 154.047 243.381C154.048 246.048 151.886 248.21 149.218 248.21Z" fill="#F8F3F1"/>
<path opacity="0.8" d="M145.365 70.1011C145.365 31.8923 114.39 0.917969 76.182 0.917969C38.0089 0.917969 6.99829 31.9286 6.99829 70.1017C6.99892 108.31 37.9727 139.284 76.1814 139.284H132.931C137.52 139.284 139.818 133.737 136.573 130.492L125.101 119.02C137.621 106.502 145.365 89.2055 145.365 70.1011Z" fill="#62666A"/>
<path d="M136.57 130.494C139.815 133.739 137.523 139.283 132.932 139.283H109.599C114.183 139.283 116.482 133.739 113.236 130.494L106.122 123.377C103.756 121.009 103.606 117.231 105.764 114.671C115.912 102.634 122.031 87.0788 122.031 70.1001C122.031 35.8726 97.1719 7.44572 64.5212 1.90197C67.6806 1.36009 70.9119 1.03759 74.2 0.944464C112.891 -0.145535 144.711 30.2207 145.355 68.9213C145.681 88.4907 137.876 106.246 125.102 119.02L136.57 130.494Z" fill="#62666A"/>
<path d="M89.8396 70.1012L102.709 57.2318C106.481 53.4599 106.481 47.3449 102.709 43.5737C98.9377 39.8018 92.8221 39.8018 89.0508 43.5737L76.1815 56.443L63.3127 43.573C59.5415 39.8012 53.4258 39.8012 49.6546 43.573C45.8827 47.3443 45.8827 53.4593 49.6546 57.2312L62.524 70.1006L49.6546 82.9699C45.8827 86.7418 45.8827 92.8568 49.6546 96.6281C51.5402 98.5143 54.0121 99.4568 56.484 99.4568C58.9558 99.4568 61.4271 98.5137 63.3133 96.6281L76.1827 83.7587L89.0521 96.6281C90.9383 98.5143 93.409 99.4568 95.8815 99.4568C98.3527 99.4568 100.825 98.5137 102.711 96.6281C106.483 92.8568 106.483 86.7418 102.711 82.9699L89.8396 70.1012Z" fill="#F8F3F1"/>
<path d="M202.541 113.475C212.466 113.475 220.513 105.429 220.513 95.5031C220.513 85.5775 212.466 77.5312 202.541 77.5312C192.615 77.5312 184.569 85.5775 184.569 95.5031C184.569 105.429 192.615 113.475 202.541 113.475Z" fill="#62666A"/>
<path d="M220.511 95.5006C220.511 105.43 212.463 113.479 202.541 113.479C199.215 113.479 196.094 112.575 193.425 110.99C200.48 109.364 205.736 103.048 205.736 95.5006C205.736 87.9613 200.488 81.6375 193.433 80.0113C196.103 78.4344 199.215 77.5313 202.541 77.5313C212.463 77.5306 220.511 85.5794 220.511 95.5006Z" fill="#62666A"/>
<path d="M265.481 73.9548C273.314 73.9548 279.664 67.6051 279.664 59.7723C279.664 51.9396 273.314 45.5898 265.481 45.5898C257.649 45.5898 251.299 51.9396 251.299 59.7723C251.299 67.6051 257.649 73.9548 265.481 73.9548Z" fill="#62666A"/>
<path d="M279.663 59.7711C279.663 67.6067 273.311 73.958 265.482 73.958C262.857 73.958 260.394 73.2448 258.288 71.9942C263.855 70.7111 268.003 65.7267 268.003 59.7711C268.003 53.8211 263.861 48.8311 258.294 47.5473C260.4 46.303 262.856 45.5898 265.481 45.5898C273.311 45.5898 279.663 51.9417 279.663 59.7711Z" fill="#62666A"/>
<path d="M233.075 33.8507L235.688 31.2382C237.574 29.3519 237.574 26.2951 235.688 24.4088C233.802 22.5232 230.744 22.5232 228.858 24.4088L226.246 27.0213L223.633 24.4088C221.748 22.5226 218.69 22.5226 216.804 24.4088C214.918 26.2945 214.918 29.3519 216.804 31.2382L219.416 33.8507L216.804 36.4632C214.918 38.3495 214.918 41.4063 216.804 43.2926C217.747 44.2357 218.983 44.707 220.218 44.707C221.454 44.707 222.69 44.2351 223.633 43.2926L226.245 40.6801L228.858 43.2926C229.801 44.2357 231.036 44.707 232.272 44.707C233.508 44.707 234.744 44.2351 235.686 43.2926C237.573 41.407 237.573 38.3495 235.686 36.4632L233.075 33.8507Z" fill="#62666A"/>
<path d="M36.1563 143.479C34.2707 141.593 31.2132 141.593 29.3269 143.479L24.7782 148.027L20.2294 143.479C18.3438 141.593 15.2863 141.593 13.4 143.479C11.5138 145.364 11.5138 148.422 13.4 150.308L17.9488 154.857L13.4 159.406C11.5138 161.291 11.5138 164.349 13.4 166.235C14.3432 167.178 15.5788 167.649 16.8144 167.649C18.05 167.649 19.2863 167.177 20.2288 166.235L24.7775 161.686L29.3263 166.235C30.2694 167.178 31.505 167.649 32.7407 167.649C33.9763 167.649 35.2125 167.177 36.155 166.235C38.0413 164.349 38.0413 161.292 36.155 159.406L31.6063 154.857L36.155 150.308C38.0419 148.422 38.0419 145.364 36.1563 143.479Z" fill="#62666A"/>
</svg>
