<svg width="120" height="120" viewBox="0 0 120 120" fill="none" xmlns="http://www.w3.org/2000/svg">
<path d="M60 0C26.8641 0 0 26.8547 0 60C0 93.1453 26.8641 120 60 120C93.1359 120 120 93.1289 120 60C120 26.8711 93.1359 0 60 0Z" fill="#2AD352"/>
<path d="M5.57204e-05 60.0001C-0.0134886 69.9175 2.44241 79.6823 7.14615 88.4134C13.1388 90.1729 19.3529 91.0639 25.5985 91.0595C61.6688 91.0595 90.9094 61.8188 90.9094 25.7485C90.9148 19.4039 89.9958 13.0923 88.1813 7.01258C79.5075 2.3924 69.8276 -0.0162828 60.0001 8.28423e-05C26.8641 8.28423e-05 5.57204e-05 26.8548 5.57204e-05 60.0001Z" fill="#74DA7F"/>
<path d="M94.2194 50.0583L58.1561 87.931C57.1733 88.962 55.9925 89.784 54.6844 90.3479C53.3764 90.9117 51.968 91.2057 50.5436 91.2122H50.4967C49.0803 91.2126 47.6782 90.9284 46.3737 90.3764C45.0692 89.8244 43.8889 89.0159 42.903 87.999L23.7663 68.288C22.7775 67.2955 21.9957 66.1165 21.4662 64.8194C20.9368 63.5223 20.6702 62.133 20.682 60.7321C20.6938 59.3311 20.9837 57.9465 21.535 56.6585C22.0862 55.3705 22.8878 54.2048 23.8931 53.2291C24.8985 52.2534 26.0876 51.4871 27.3915 50.9746C28.6954 50.4622 30.0881 50.2138 31.4888 50.2439C32.8894 50.2741 34.2702 50.5821 35.5508 51.1501C36.8315 51.7181 37.9866 52.5348 38.9491 53.5529L50.4217 65.3701L78.8959 35.4685C79.8498 34.4457 80.997 33.6222 82.2711 33.0456C83.5453 32.4689 84.9211 32.1507 86.319 32.1092C87.717 32.0676 89.1093 32.3037 90.4154 32.8037C91.7215 33.3037 92.9155 34.0577 93.9284 35.0221C94.9413 35.9864 95.7529 37.1421 96.3163 38.4221C96.8797 39.7022 97.1837 41.0812 97.2108 42.4795C97.2379 43.8778 96.9874 45.2676 96.4739 46.5684C95.9605 47.8693 95.1942 49.0555 94.2194 50.0583Z" fill="white"/>
</svg>
