<svg width="24" height="24" viewBox="0 0 24 24" fill="none" xmlns="http://www.w3.org/2000/svg">
<path d="M20.0697 5.23C18.4597 5.07 16.8497 4.95 15.2297 4.86V4.85L15.0097 3.55C14.8597 2.63 14.6397 1.25 12.2997 1.25H9.67967C7.34967 1.25 7.12967 2.57 6.96967 3.54L6.75967 4.82C5.82967 4.88 4.89967 4.94 3.96967 5.03L1.92967 5.23C1.50967 5.27 1.20967 5.64 1.24967 6.05C1.28967 6.46 1.64967 6.76 2.06967 6.72L4.10967 6.52C9.34967 6 14.6297 6.2 19.9297 6.73C19.9597 6.73 19.9797 6.73 20.0097 6.73C20.3897 6.73 20.7197 6.44 20.7597 6.05C20.7897 5.64 20.4897 5.27 20.0697 5.23Z" fill="#FE2C55"/>
<path d="M18.2297 8.14C17.9897 7.89 17.6597 7.75 17.3197 7.75H4.67975C4.33975 7.75 3.99975 7.89 3.76975 8.14C3.53975 8.39 3.40975 8.73 3.42975 9.08L4.04975 19.34C4.15975 20.86 4.29975 22.76 7.78975 22.76H14.2097C17.6997 22.76 17.8398 20.87 17.9497 19.34L18.5697 9.09C18.5897 8.73 18.4597 8.39 18.2297 8.14ZM12.6597 17.75H9.32975C8.91975 17.75 8.57975 17.41 8.57975 17C8.57975 16.59 8.91975 16.25 9.32975 16.25H12.6597C13.0697 16.25 13.4097 16.59 13.4097 17C13.4097 17.41 13.0697 17.75 12.6597 17.75ZM13.4997 13.75H8.49975C8.08975 13.75 7.74975 13.41 7.74975 13C7.74975 12.59 8.08975 12.25 8.49975 12.25H13.4997C13.9097 12.25 14.2497 12.59 14.2497 13C14.2497 13.41 13.9097 13.75 13.4997 13.75Z" fill="#FE2C55"/>
<path d="M22.0697 5.23C20.4597 5.07 18.8497 4.95 17.2297 4.86V4.85L17.0097 3.55C16.8597 2.63 16.6397 1.25 14.2997 1.25H11.6797C9.34967 1.25 9.12967 2.57 8.96967 3.54L8.75967 4.82C7.82967 4.88 6.89967 4.94 5.96967 5.03L3.92967 5.23C3.50967 5.27 3.20967 5.64 3.24967 6.05C3.28967 6.46 3.64967 6.76 4.06967 6.72L6.10967 6.52C11.3497 6 16.6297 6.2 21.9297 6.73C21.9597 6.73 21.9797 6.73 22.0097 6.73C22.3897 6.73 22.7197 6.44 22.7597 6.05C22.7897 5.64 22.4897 5.27 22.0697 5.23Z" fill="#25F4EE"/>
<path d="M20.2297 8.14C19.9897 7.89 19.6597 7.75 19.3197 7.75H6.67975C6.33975 7.75 5.99975 7.89 5.76975 8.14C5.53975 8.39 5.40975 8.73 5.42975 9.08L6.04975 19.34C6.15975 20.86 6.29975 22.76 9.78975 22.76H16.2097C19.6997 22.76 19.8398 20.87 19.9497 19.34L20.5697 9.09C20.5897 8.73 20.4597 8.39 20.2297 8.14ZM14.6597 17.75H11.3297C10.9197 17.75 10.5797 17.41 10.5797 17C10.5797 16.59 10.9197 16.25 11.3297 16.25H14.6597C15.0697 16.25 15.4097 16.59 15.4097 17C15.4097 17.41 15.0697 17.75 14.6597 17.75ZM15.4997 13.75H10.4997C10.0897 13.75 9.74975 13.41 9.74975 13C9.74975 12.59 10.0897 12.25 10.4997 12.25H15.4997C15.9097 12.25 16.2497 12.59 16.2497 13C16.2497 13.41 15.9097 13.75 15.4997 13.75Z" fill="#25F4EE"/>
<path d="M21.0697 5.23C19.4597 5.07 17.8497 4.95 16.2297 4.86V4.85L16.0097 3.55C15.8597 2.63 15.6397 1.25 13.2997 1.25H10.6797C8.34967 1.25 8.12967 2.57 7.96967 3.54L7.75967 4.82C6.82967 4.88 5.89967 4.94 4.96967 5.03L2.92967 5.23C2.50967 5.27 2.20967 5.64 2.24967 6.05C2.28967 6.46 2.64967 6.76 3.06967 6.72L5.10967 6.52C10.3497 6 15.6297 6.2 20.9297 6.73C20.9597 6.73 20.9797 6.73 21.0097 6.73C21.3897 6.73 21.7197 6.44 21.7597 6.05C21.7897 5.64 21.4897 5.27 21.0697 5.23Z" fill="white"/>
<path d="M19.2297 8.14C18.9897 7.89 18.6597 7.75 18.3197 7.75H5.67975C5.33975 7.75 4.99975 7.89 4.76975 8.14C4.53975 8.39 4.40975 8.73 4.42975 9.08L5.04975 19.34C5.15975 20.86 5.29975 22.76 8.78975 22.76H15.2097C18.6997 22.76 18.8398 20.87 18.9497 19.34L19.5697 9.09C19.5897 8.73 19.4597 8.39 19.2297 8.14ZM13.6597 17.75H10.3297C9.91975 17.75 9.57975 17.41 9.57975 17C9.57975 16.59 9.91975 16.25 10.3297 16.25H13.6597C14.0697 16.25 14.4097 16.59 14.4097 17C14.4097 17.41 14.0697 17.75 13.6597 17.75ZM14.4997 13.75H9.49975C9.08975 13.75 8.74975 13.41 8.74975 13C8.74975 12.59 9.08975 12.25 9.49975 12.25H14.4997C14.9097 12.25 15.2497 12.59 15.2497 13C15.2497 13.41 14.9097 13.75 14.4997 13.75Z" fill="white"/>
</svg>
