<svg width="20" height="20" viewBox="0 0 20 20" fill="none" xmlns="http://www.w3.org/2000/svg">
<path d="M14.7726 6.28772L6.28728 14.773C5.99737 15.0629 5.51653 15.0629 5.22662 14.773C4.93671 14.4831 4.93671 14.0023 5.22662 13.7123L13.7119 5.22706C14.0018 4.93715 14.4826 4.93715 14.7726 5.22706C15.0625 5.51698 15.0625 5.99781 14.7726 6.28772Z" fill="#292D32"/>
<path d="M14.7726 14.7729C14.4826 15.0628 14.0018 15.0628 13.7119 14.7729L5.22662 6.28765C4.93671 5.99774 4.93671 5.51691 5.22662 5.22699C5.51653 4.93708 5.99737 4.93708 6.28728 5.22699L14.7726 13.7123C15.0625 14.0022 15.0625 14.483 14.7726 14.7729Z" fill="#292D32"/>
</svg>
